﻿{
  "profiles": {
    "kestrel": {
      "commandName": "kestrel",
      "environmentVariables": {
        "ASPNET_ENV": "Development",
        "LOG_FORMAT": "Plain",
        "WHITEPAGES-PRO_CONFIGURATION_HOST": "52.52.235.52",
        "WHITEPAGES-PRO_CONFIGURATION_PORT": "7001",
        "WHITEPAGES-PRO_EVENTHUB_HOST": "52.52.235.52",
        "WHITEPAGES-PRO_EVENTHUB_PORT": "7002",
        "WHITEPAGES-PRO_TENANT_HOST": "52.52.235.52",
        "WHITEPAGES-PRO_TENANT_PORT": "7003",
        "WHITEPAGES-PRO_LOOKUPSERVICE_HOST": "52.52.235.52",
        "WHITEPAGES-PRO_LOOKUPSERVICE_PORT": "7005",
        "WHITEPAGES-PRO_NATS_URL": "52.52.235.52:4222"
      }
    }
  }
}